{
    "containerDefinitions": [
        {
            "portMappings": [
                {
                    "hostPort": 0,
                    "containerPort": 3000,
                    "protocol": "tcp"
                }
            ],
            "essential": true,
            "name": "parentstoryweb-staging-container",
            "image": "922278837503.dkr.ecr.ap-southeast-1.amazonaws.com/parentstoryweb:staging-BRANCH_NAME-BUILD_NUMBER",
            "logConfiguration": {
                "logDriver": "awslogs",
                "options": {
                    "awslogs-group": "frontend-staging",
                    "awslogs-region": "ap-southeast-1",
                    "awslogs-stream-prefix": "parentstoryweb-staging"
                }
            },
            "cpu": 0,
            "memoryReservation": 128
        }
    ],
    "family": "parentstoryweb-staging-task"
}
