<?xml version="1.0" standalone="no"?>
<!DOCTYPE svg PUBLIC "-//W3C//DTD SVG 20010904//EN"
 "http://www.w3.org/TR/2001/REC-SVG-20010904/DTD/svg10.dtd">
<svg version="1.0" xmlns="http://www.w3.org/2000/svg"
 width="900.000000pt" height="765.000000pt" viewBox="0 0 900.000000 765.000000"
 preserveAspectRatio="xMidYMid meet">
<metadata>
Created by potrace 1.10, written by Peter Selinger 2001-2011
</metadata>
<g transform="translate(0.000000,765.000000) scale(0.100000,-0.100000)"
fill="#000000" stroke="none">
<path d="M265 7640 c3 -5 -7 -15 -22 -21 -15 -6 -41 -18 -58 -26 -36 -18 -135
-113 -135 -128 0 -6 -5 -16 -12 -23 -39 -39 -38 54 -38 -3622 0 -3756 -2
-3563 42 -3643 18 -31 110 -127 123 -127 6 0 16 -5 23 -12 39 -39 -84 -38
4302 -38 3373 0 4222 3 4250 13 19 7 46 19 60 26 33 18 130 112 130 127 0 6 7
17 15 24 8 7 15 21 15 31 0 11 9 28 20 39 20 20 20 33 20 3560 0 3120 -2 3540
-15 3540 -8 0 -18 12 -21 28 -4 15 -14 41 -23 57 -20 38 -111 135 -127 135 -6
0 -17 7 -24 15 -7 8 -21 15 -31 15 -11 0 -28 9 -39 20 -20 20 -33 20 -4241 20
-2799 0 -4218 -3 -4214 -10z m475 -630 l0 -129 -124 -3 c-114 -3 -123 -2 -115
14 5 9 26 25 47 35 69 33 139 119 166 206 3 10 10 15 16 12 6 -4 10 -59 10
-135z m7549 61 c22 -47 112 -138 144 -146 14 -4 32 -17 40 -28 l14 -22 -106 2
c-58 1 -114 2 -123 3 -16 0 -18 13 -18 128 0 129 7 164 24 120 4 -13 16 -38
25 -57z m-66 -201 c16 0 17 -152 17 -3055 l0 -3055 -3750 0 -3750 0 0 3054 0
3055 23 3 c17 2 2685 2 7460 -2z m256 -6132 c-5 -9 -26 -25 -47 -35 -69 -33
-139 -119 -166 -206 -3 -10 -10 -15 -16 -12 -6 4 -10 59 -10 135 l0 129 68 3
c37 2 92 3 124 3 50 0 55 -2 47 -17z m-7739 -117 c0 -124 -12 -174 -26 -114
-17 69 -105 172 -170 199 -17 7 -34 20 -37 29 -6 13 10 15 113 15 l120 0 0
-129z"/>
<path d="M5900 5829 c-19 -5 -57 -13 -85 -18 -27 -5 -66 -15 -85 -21 -71 -26
-185 -74 -199 -84 -15 -12 -49 -32 -71 -42 -31 -15 -137 -101 -190 -154 -54
-54 -140 -160 -153 -190 -4 -8 -16 -28 -27 -45 -11 -16 -24 -39 -29 -50 -44
-99 -61 -139 -61 -151 0 -7 -6 -28 -14 -46 -59 -140 -59 -486 0 -626 8 -18 14
-39 14 -46 0 -12 17 -52 61 -151 5 -11 18 -33 29 -50 11 -16 23 -37 27 -45 13
-30 99 -136 153 -190 54 -54 160 -140 190 -153 8 -4 29 -16 45 -27 17 -11 39
-24 50 -29 99 -44 139 -61 151 -61 7 0 28 -6 46 -14 140 -59 486 -59 626 0 18
8 39 14 46 14 12 0 52 17 151 61 11 5 34 18 50 29 17 11 37 23 45 27 30 13
136 99 190 153 54 54 140 160 153 190 4 8 16 29 27 45 11 17 24 39 29 50 44
99 61 139 61 151 0 7 6 28 14 46 59 140 59 486 0 626 -8 18 -14 39 -14 46 0
12 -17 52 -61 151 -5 11 -18 34 -29 50 -11 17 -23 37 -27 45 -13 30 -99 136
-153 190 -54 54 -160 140 -190 153 -8 4 -28 16 -45 27 -16 11 -39 24 -50 29
-99 44 -139 61 -151 61 -7 0 -28 6 -46 14 -93 39 -378 60 -478 35z"/>
<path d="M3634 4448 c-50 -68 -101 -139 -115 -158 -13 -19 -27 -39 -31 -45
-39 -49 -261 -349 -280 -380 -14 -22 -34 -50 -44 -62 -11 -13 -74 -98 -142
-190 -236 -323 -401 -548 -412 -560 -6 -7 -25 -34 -42 -60 -18 -27 -86 -120
-151 -208 -65 -88 -131 -178 -147 -200 -16 -22 -90 -123 -165 -225 -75 -102
-147 -201 -161 -220 -14 -19 -87 -119 -162 -222 -75 -102 -162 -221 -192 -263
-30 -42 -63 -85 -73 -96 -10 -11 -15 -24 -12 -29 7 -12 5961 -14 5968 -3 3 5
-103 118 -235 253 -208 212 -714 730 -1112 1138 -66 67 -124 122 -129 122 -5
0 -65 -57 -134 -127 -348 -356 -515 -523 -521 -523 -8 1 -197 253 -248 331
-18 26 -37 54 -43 61 -11 13 -170 227 -413 561 -68 92 -131 177 -142 190 -10
12 -29 39 -43 60 -13 21 -78 111 -144 200 -66 89 -133 180 -149 202 -24 33
-117 160 -325 445 -82 112 -97 130 -103 130 -4 0 -48 -55 -98 -122z m153
-1084 c15 -26 33 -54 38 -63 6 -9 43 -65 83 -124 39 -60 72 -110 72 -112 0 -1
34 -53 75 -115 41 -62 75 -113 75 -115 0 -1 47 -73 105 -160 58 -86 105 -158
105 -160 0 -1 29 -46 65 -100 67 -102 76 -125 50 -125 -8 0 -330 0 -715 0
-385 0 -707 0 -715 0 -26 0 -17 23 50 125 36 54 65 99 65 100 0 2 47 74 105
160 58 87 105 159 105 160 0 2 34 53 75 115 41 62 75 114 75 115 0 2 33 52 72
112 40 59 77 115 83 124 5 9 23 37 38 63 17 27 36 46 47 46 11 0 30 -19 47
-46z"/>
</g>
</svg>
