<?xml version="1.0" encoding="UTF-8" standalone="no"?>
<svg width="120px" height="120px" viewBox="0 0 120 120" version="1.1" xmlns="http://www.w3.org/2000/svg" xmlns:xlink="http://www.w3.org/1999/xlink">
    <!-- Generator: Sketch 49 (51002) - http://www.bohemiancoding.com/sketch -->
    <title>icon/edit item</title>
    <desc>Created with Sketch.</desc>
    <defs></defs>
    <g id="icon/edit-item" stroke="none" stroke-width="1" fill="none" fill-rule="evenodd">
        <rect id="Rectangle-10" fill="#FFFFFF" style="mix-blend-mode: multiply;" opacity="0.01" x="0" y="0" width="120" height="120"></rect>
        <g id="91" transform="translate(27.000000, 14.000000)" fill="#7E7A85" fill-rule="nonzero">
            <path d="M63.556,87.815 L4.036,87.815 C3.156,87.815 2.444,88.527 2.444,89.407 C2.444,90.287 3.156,91 4.036,91 L63.556,91 C64.436,91 65.148,90.287 65.148,89.407 C65.148,88.527 64.436,87.815 63.556,87.815 Z" id="Shape"></path>
            <path d="M4.707,78.08 L15.18,73.208 C17.358,72.196 20.145,69.86 21.524,67.891 L57.043,17.163 C60.292,12.523 59.161,6.104 54.521,2.854 C49.881,-0.396 43.464,0.737 40.213,5.377 L41.517,6.29 L40.213,5.378 L4.693,56.106 C3.314,58.073 2.072,61.491 1.864,63.885 L0.867,75.392 C0.774,76.479 1.163,77.412 1.935,77.952 C2.355,78.246 2.845,78.394 3.364,78.394 C3.8,78.395 4.707,78.08 4.707,78.08 Z M42.818,7.204 C45.061,4.002 49.489,3.218 52.694,5.462 C55.895,7.705 56.676,12.136 54.434,15.338 L47.806,24.803 L36.191,16.669 L42.818,7.204 Z M5.035,64.161 C5.193,62.339 6.251,59.428 7.3,57.932 L9.084,55.383 L20.701,63.515 L18.915,66.066 C17.867,67.562 15.494,69.551 13.836,70.322 L4.109,74.847 L5.035,64.161 Z" id="Shape"></path>
        </g>
    </g>
</svg>