<?xml version="1.0" encoding="UTF-8" standalone="no"?>
<svg width="13px" height="13px" viewBox="0 0 13 13" version="1.1" xmlns="http://www.w3.org/2000/svg" xmlns:xlink="http://www.w3.org/1999/xlink">
    <!-- Generator: sketchtool 50.2 (55047) - http://www.bohemiancoding.com/sketch -->
    <title>469CA8F1-F1F9-4F00-8F55-0FE20149EE1B</title>
    <desc>Created with sketchtool.</desc>
    <defs></defs>
    <g id="Symbols" stroke="none" stroke-width="1" fill="none" fill-rule="evenodd">
        <g id="Icons/ic_tag" transform="translate(-6.000000, -6.000000)" fill="#D3DCE6">
            <path d="M11.9852178,6.3480426 L18.0637285,11.7503593 C18.2852307,11.9479304 18.2963614,12.2807403 18.0854334,12.4916683 L12.4938937,18.0854341 C12.2829657,18.294136 11.9484862,18.2852314 11.7503586,18.0637291 L6.3480419,11.9852185 C6.15047083,11.7631597 5.99352704,11.3374079 6.0002055,11.0391034 L6.09593008,6.64801671 C6.10038238,6.35026875 6.35026806,6.09982654 6.64801602,6.09593077 L11.0396593,6.00020619 C11.3374072,5.99352774 11.763159,6.14991498 11.9852178,6.3480426 Z M8.62662641,11.2972042 L12.2284254,14.8990031 C12.3690844,15.0396621 12.5971377,15.0396621 12.7377967,14.8990031 C12.8784557,14.7583441 12.8784557,14.5302908 12.7377967,14.3896318 L9.1359977,10.7878329 C8.9953387,10.6471739 8.76728541,10.6471739 8.62662641,10.7878329 C8.48596741,10.9284919 8.48596741,11.1565452 8.62662641,11.2972042 Z M10.7877058,9.13612481 L14.3895047,12.7379238 C14.5301637,12.8785828 14.758217,12.8785828 14.898876,12.7379238 C15.039535,12.5972648 15.039535,12.3692115 14.898876,12.2285525 L11.2970771,8.62675352 C11.1564181,8.48609452 10.9283648,8.48609452 10.7877058,8.62675352 C10.6470468,8.76741252 10.6470468,8.99546581 10.7877058,9.13612481 Z M8.97657202,8.97601618 C8.65878869,9.29379952 8.14399081,9.29379952 7.82843363,8.97601618 C7.51120683,8.65878938 7.51120683,8.14566112 7.82843363,7.82843432 C8.14399081,7.51120752 8.65878869,7.51120752 8.97657202,7.82843432 C9.29379882,8.14566112 9.29379882,8.65878938 8.97657202,8.97601618 Z" id="Fill-1"></path>
        </g>
    </g>
</svg>