<?xml version="1.0" encoding="UTF-8" standalone="no"?>
<svg width="12px" height="13px" viewBox="0 0 12 13" version="1.1" xmlns="http://www.w3.org/2000/svg" xmlns:xlink="http://www.w3.org/1999/xlink">
    <!-- Generator: sketchtool 50.2 (55047) - http://www.bohemiancoding.com/sketch -->
    <title>A73E33C4-B7BA-4CF9-BA36-31575DAE2529</title>
    <desc>Created with sketchtool.</desc>
    <defs></defs>
    <g id="Symbols" stroke="none" stroke-width="1" fill="none" fill-rule="evenodd">
        <g id="Icons/ic_age" transform="translate(-6.000000, -6.000000)" fill="#D3DCE6" fill-rule="nonzero">
            <g id="Group" transform="translate(6.000000, 6.000000)">
                <path d="M1.18681319,13 L1.18681319,8.55263158 L0,8.55263158 L0,5.29122807 C0,4.63894737 0.712087912,4.10526316 1.58241758,4.10526316 L3.95604396,4.10526316 C4.82637363,4.10526316 5.53846154,4.63894737 5.53846154,5.29122807 L5.53846154,8.55263158 L4.35164835,8.55263158 L4.35164835,13 L1.18681319,13 Z M2.76923077,3.28421053 C3.64747253,3.28421053 4.35164835,2.55347368 4.35164835,1.64210526 C4.35164835,0.730736842 3.64747253,0 2.76923077,0 C1.89098901,0 1.18681319,0.730736842 1.18681319,1.64210526 C1.18681319,2.55347368 1.89098901,3.28421053 2.76923077,3.28421053 Z" id="Shape"></path>
                <path d="M7.64835165,13 L7.64835165,9.93548387 L6.46153846,9.93548387 L6.46153846,7.68817204 C6.46153846,7.23870968 7.17362637,6.87096774 8.04395604,6.87096774 L10.4175824,6.87096774 C11.2879121,6.87096774 12,7.23870968 12,7.68817204 L12,9.93548387 L10.8131868,9.93548387 L10.8131868,13 L7.64835165,13 Z M9.23076923,6.09677419 C10.109011,6.09677419 10.8131868,5.40774194 10.8131868,4.5483871 C10.8131868,3.68903226 10.109011,3 9.23076923,3 C8.35252747,3 7.64835165,3.68903226 7.64835165,4.5483871 C7.64835165,5.40774194 8.35252747,6.09677419 9.23076923,6.09677419 Z" id="Shape"></path>
            </g>
        </g>
    </g>
</svg>