<svg xmlns="http://www.w3.org/2000/svg" width="24" height="24" viewBox="0 0 24 24">
    <path fill="#FF5E72" fill-rule="evenodd" d="M9.842 12.364L6.54 15.667a1.5 1.5 0 1 0 2.122 2.12l3.303-3.302 3.303 3.303a1.5 1.5 0 0 0 2.12-2.121l-3.302-3.303 3.303-3.303a1.5 1.5 0 0 0-2.121-2.122l-3.303 3.303L8.66 6.94a1.5 1.5 0 0 0-2.122 2.122l3.303 3.303zM12 24C5.373 24 0 18.627 0 12S5.373 0 12 0s12 5.373 12 12-5.373 12-12 12z"/>
</svg>
