<?xml version="1.0" encoding="UTF-8"?>
<svg width="24px" height="24px" viewBox="0 0 24 24" version="1.1" xmlns="http://www.w3.org/2000/svg" xmlns:xlink="http://www.w3.org/1999/xlink">
    <!-- Generator: Sketch 50.2 (55047) - http://www.bohemiancoding.com/sketch -->
    <title>Icons/ic_search</title>
    <desc>Created with Sketch.</desc>
    <defs></defs>
    <g id="Icons/ic_search" stroke="none" stroke-width="1" fill="none" fill-rule="evenodd">
        <rect id="Rectangle-7" fill="#FFFFFF" opacity="0.01" style="mix-blend-mode: multiply;" x="0" y="0" width="24" height="24"></rect>
        <path d="M15.84375,14.296875 L21,19.453125 L19.453125,21 L14.34375,15.84375 L14.34375,15.046875 L14.015625,14.765625 C12.7656187,15.8281303 11.3125083,16.359375 9.65625,16.359375 C7.81249078,16.359375 6.24219398,15.710944 4.9453125,14.4140625 C3.64843102,13.117181 3,11.5468842 3,9.703125 C3,7.85936578 3.64843102,6.28125656 4.9453125,4.96875 C6.24219398,3.65624344 7.79686594,3 9.609375,3 C11.4531342,3 13.023431,3.65624344 14.3203125,4.96875 C15.617194,6.28125656 16.265625,7.85936578 16.265625,9.703125 C16.265625,11.3593833 15.7343803,12.8124937 14.671875,14.0625 L15,14.296875 L15.84375,14.296875 Z M9.65625,14.296875 C10.9375064,14.296875 12.0312455,13.851567 12.9375,12.9609375 C13.8437545,12.070308 14.296875,10.9843814 14.296875,9.703125 C14.296875,8.42186859 13.8437545,7.32812953 12.9375,6.421875 C12.0312455,5.51562047 10.9375064,5.0625 9.65625,5.0625 C8.37499359,5.0625 7.28906695,5.51562047 6.3984375,6.421875 C5.50780805,7.32812953 5.0625,8.42186859 5.0625,9.703125 C5.0625,10.9843814 5.50780805,12.070308 6.3984375,12.9609375 C7.28906695,13.851567 8.37499359,14.296875 9.65625,14.296875 Z" id="ic_search" fill="#333333"></path>
    </g>
</svg>