<?xml version="1.0" standalone="no"?>
<!DOCTYPE svg PUBLIC "-//W3C//DTD SVG 20010904//EN"
 "http://www.w3.org/TR/2001/REC-SVG-20010904/DTD/svg10.dtd">
<svg version="1.0" xmlns="http://www.w3.org/2000/svg"
 width="900.000000pt" height="900.000000pt" viewBox="0 0 900.000000 900.000000"
 preserveAspectRatio="xMidYMid meet">
<metadata>
Created by potrace 1.10, written by Peter Selinger 2001-2011
</metadata>
<g transform="translate(0.000000,900.000000) scale(0.100000,-0.100000)"
fill="#000000" stroke="none">
<path d="M3450 8222 c-48 -23 -78 -50 -109 -97 l-26 -40 0 -525 c0 -507 1
-526 20 -560 38 -67 76 -97 147 -116 77 -20 145 -4 206 52 83 74 82 67 82 625
0 459 -1 489 -19 530 -55 124 -192 184 -301 131z"/>
<path d="M5727 8221 c-45 -22 -81 -54 -110 -101 -22 -35 -22 -37 -22 -565 l0
-530 27 -41 c34 -53 76 -83 141 -100 80 -21 146 -3 206 55 81 79 81 81 81 620
0 434 -1 471 -19 521 -46 131 -186 196 -304 141z"/>
<path d="M2100 7770 c-101 -22 -149 -39 -217 -77 -122 -67 -225 -169 -296
-293 -39 -67 -52 -102 -78 -203 -19 -77 -19 -136 -19 -2756 0 -2347 2 -2684
15 -2734 8 -32 15 -67 15 -77 0 -18 6 -34 45 -125 7 -16 16 -37 19 -45 44
-108 221 -305 328 -366 46 -26 169 -84 178 -84 5 0 24 -6 42 -14 18 -8 74 -21
123 -30 81 -14 332 -16 2427 -16 2090 0 2346 2 2415 16 121 24 201 50 263 86
8 4 26 13 39 19 83 35 249 190 314 291 42 67 107 202 107 224 0 8 5 25 12 37
35 67 37 190 38 2814 0 1794 -3 2593 -11 2665 -10 92 -34 190 -59 236 -5 9
-11 24 -14 32 -4 8 -15 29 -26 45 -11 17 -24 39 -29 50 -15 33 -142 155 -201
194 -75 48 -106 63 -170 83 -30 9 -73 22 -95 29 -29 9 -167 14 -495 16 -250 2
-464 2 -476 -1 l-22 -6 -4 -397 -3 -398 -34 -70 c-24 -49 -55 -91 -103 -137
-37 -38 -74 -68 -81 -68 -7 0 -18 -5 -24 -11 -26 -26 -119 -48 -203 -49 -85 0
-148 15 -227 55 -53 27 -131 104 -166 164 -61 105 -61 102 -67 526 l-5 390
-669 3 c-460 1 -673 -1 -680 -8 -7 -7 -13 -149 -16 -408 l-5 -397 -34 -67
c-82 -163 -232 -258 -409 -258 -204 0 -369 120 -440 320 -13 37 -17 113 -21
430 l-6 385 -445 2 c-398 1 -454 -1 -530 -17z m5305 -1532 c3 -13 4 -1026 3
-2253 -3 -2063 -4 -2233 -20 -2265 -9 -19 -19 -42 -23 -50 -32 -78 -135 -181
-220 -219 -92 -41 -34 -40 -2467 -41 -1719 0 -2340 3 -2375 11 -128 31 -250
125 -305 235 -62 123 -58 -35 -58 2385 0 1213 3 2209 7 2212 3 4 1232 7 2729
7 l2724 0 5 -22z"/>
<path d="M5150 4795 c-120 -20 -223 -66 -323 -142 -114 -88 -196 -227 -228
-387 -24 -121 -24 -178 0 -200 16 -15 148 -35 266 -40 l30 -1 7 116 c6 101 11
125 38 182 35 75 104 144 179 179 39 18 64 22 171 22 139 1 176 -9 258 -70 63
-48 94 -93 119 -177 45 -151 -12 -318 -150 -443 -46 -42 -173 -134 -212 -154
-5 -3 -37 -23 -70 -45 -33 -22 -64 -42 -70 -45 -17 -8 -190 -123 -195 -129 -3
-3 -27 -24 -55 -45 -91 -72 -214 -216 -245 -288 -5 -13 -14 -30 -19 -38 -10
-17 -31 -73 -55 -145 -9 -29 -17 -92 -18 -150 l-3 -100 695 -3 c382 -1 705 0
718 3 22 5 23 7 20 148 l-3 142 -522 3 c-491 2 -523 3 -523 20 0 26 37 92 74
131 31 33 180 151 190 151 3 0 35 20 72 45 36 25 67 45 70 45 2 0 33 20 70 45
36 25 67 45 69 45 7 0 169 112 215 148 61 49 78 67 133 139 57 75 90 139 118
229 29 92 30 286 4 365 -32 96 -79 180 -134 241 -53 59 -160 138 -186 138 -8
0 -16 4 -19 9 -3 5 -36 18 -73 29 -141 43 -267 51 -413 27z"/>
<path d="M3920 4745 c0 -8 -14 -45 -32 -82 -57 -123 -200 -239 -328 -266 -25
-5 -72 -15 -105 -21 l-60 -12 -3 -101 -3 -101 27 -6 c15 -4 122 -7 238 -6 116
1 217 1 223 1 10 -1 13 -157 15 -728 l3 -728 139 -3 c77 -1 143 1 148 6 6 6
12 1549 8 2050 0 9 -34 12 -135 12 -113 0 -135 -2 -135 -15z"/>
</g>
</svg>
